General Purpose Oai-PMH Services Client • rOpenSci: oai
…
Identify

id("http://oai.datacite.org/oai")
#>   repositoryName                      baseURL protocolVersion
#> 1       DataCite https://oai.datacite.org/oai             2.0
#>             adminEmail    earliestDatestamp deletedRecord          granularity
#> 1 support@datacite.org 2011-01-01T00:00:00Z    persistent YYYY-MM-DDThh:mm:ssZ
#>   compression compression.1                                    description
#> 1        gzip       deflate oaioai.datacite.org:oai:oai.datacite.org:12425

ListIdentifiers

list_identifiers(from = '2018-05-01T', until = '2018-06-01T')
#> # A tibble: 85 x 5
#>    identifier         datestamp     setSpec             setSpec.1      setSpec.2
#>    <chr>              <chr>         <chr>               <chr>          <chr>    
#>  1 cf7fbc99-de82-41a… 2018-05-31T1… installation:791e3… dataset_type:… country:…
#>  2 09d5405e-ca86-45f… 2018-05-30T1… installation:804b8… dataset_type:… country:…
#>  3 4b64d1f2-31c2-40c… 2018-05-30T1… installation:804b8… dataset_type:… country:…
#>  4 884378d6-d591-476… 2018-05-29T1… installation:a1650… dataset_type:… country:…
#>  5 18799ce9-1a66-40f… 2018-05-14T1… installation:d1b0a… dataset_type:… country:…
#>  6 7e91aacb-c994-41e… 2018-05-21T1… installation:d5b61… dataset_type:… country:…
#>  7 f83746ee-4cf2-4e6… 2018-05-08T0… installation:c4195… dataset_type:… country:…
#>  8 a3533a61-6f88-443… 2018-05-08T1… installation:06d75… dataset_type:… country:…
#>  9 ba9b66a3-2d11-419… 2018-05-05T2… installation:d1b0a… dataset_type:… country:…
#> 10 78b696d9-8f0d-41a… 2018-05-05T2… installation:d1b0a… dataset_type:… country:…
#> # … with 75 more rows

Count Identifiers

count_identifiers()
#>                            url   count
#> 1 http://export.arxiv.org/oai2 1586724

ListRecords

list_records(from = '2018-05-01T', until = '2018-05-15T')
#> # A tibble: 42 x 26
#>    identifier datestamp setSpec setSpec.1 setSpec.2 title publisher identifier.1
#>    <chr>      <chr>     <chr>   <chr>     <chr>     <chr> <chr>     <chr>       
#>  1 18799ce9-… 2018-05-… instal… dataset_… country:… Bird… Sokoine … https://www…
#>  2 f83746ee-… 2018-05-… instal… dataset_… country:… NDFF… Dutch Na… https://www…
#>  3 a3533a61-… 2018-05-… instal… dataset_… country:… EDP … EDP - En… https://www…
#>  4 ba9b66a3-… 2018-05-… instal… dataset_… country:… Ende… Sokoine … https://www…
#>  5 78b696d9-… 2018-05-… instal… dataset_… country:… Ende… Sokoine … https://www…
#>  6 c791b255-… 2018-05-… instal… dataset_… country:… Ende… Sokoine … https://www…
#>  7 b929ccda-… 2018-05-… instal… dataset_… country:… List… Sokoine … https://www…
#>  8 da285c2a-… 2018-05-… instal… dataset_… country:… Moni… Corporac… https://www…
#>  9 87372877-… 2018-05-… instal… dataset_… country:… Moni… Corporac… https://www…
#> 10 ed7d4c25-… 2018-05-… instal… dataset_… country:… Samo… Ministry… https://www…
#> # … with 32 more rows, and 18 more variables: subject <chr>, source <chr>,
#> #   description <chr>, description.1 <chr>, type <chr>, creator <chr>,
#> #   date <chr>, language <chr>, coverage <chr>, coverage.1 <chr>, format <chr>,
#> #   source.1 <chr>, subject.1 <chr>, creator.1 <chr>, coverage.2 <chr>,
#> #   description.2 <chr>, creator.2 <chr>, subject.2 <chr>
…
List MetadataFormats

list_metadataformats(id = "87832186-00ea-44dd-a6bf-c2896c4d09b4")
#> $`87832186-00ea-44dd-a6bf-c2896c4d09b4`
#>   metadataPrefix                                                   schema
#> 1         oai_dc           http://www.openarchives.org/OAI/2.0/oai_dc.xsd
#> 2            eml http://rs.gbif.org/schema/eml-gbif-profile/1.0.2/eml.xsd
#>                             metadataNamespace
#> 1 http://www.openarchives.org/OAI/2.0/oai_dc/
#> 2          eml://ecoinformatics.org/eml-2.1.1

List Sets

list_sets("http://api.gbif.org/v1/oai-pmh/registry")
#> # A tibble: 597 x 2
#>    setSpec                     setName         
#>    <chr>                       <chr>           
#>  1 dataset_type                per dataset type
#>  2 dataset_type:OCCURRENCE     occurrence      
#>  3 dataset_type:CHECKLIST      checklist       
#>  4 dataset_type:METADATA       metadata        
#>  5 dataset_type:SAMPLING_EVENT sampling_event  
#>  6 country                     per country     
#>  7 country:AD                  Andorra         
#>  8 country:AM                  Armenia         
#>  9 country:AO                  Angola          
#> 10 country:AR                  Argentina       
#> # … with 587 more rows
…
